{
  "environment": "local",
  "title": "Notes",
  "backend": {
    "apiBaseUri": "http://localhost:8080",
    "apiBasePath": "/notes/api-v1",
    "apiMappings": {
      "appInfo": {
        "version": "/version",
        "environment": "/environment"
      },
      "login": "/login",
      "user": "/user",
      "note": "/note"
    }
  }
}
